{"663F110":"9"},
{"663F121":"9"},
{"663F122":"9"},
{"663F123":"4"},
{"663F124":"6"},
{"663F125":"9"},
{"663F126":"2"},
{"663F127":"4"},
{"663F128":"6"},
{"663F129":"9"},
{"663F12A":"2"},
{"663F12B":"4"},
{"663F12C":"6"},
{"663F12D":"9"},
{"663F12E":"2"},
{"663F12F":"4"},
{"663F120":"6"},
{"663F121":"9"},
{"663F122":"2"},
{"663F123":"4"},
{"663F124":"6"},
{"663F125":"9"},
{"663F126":"2"},
{"663F127":"4"},
{"663F128":"6"},
{"663F129":"9"},
{"663F12A":"2"},
{"663F12B":"4"},
{"663F12C":"6"},
{"663F12D":"9"},
{"663F12E":"2"},
{"663F12F":"4"},
{"663F120":"6"},
{"663F121":"9"},
{"663F122":"9"}
