{"678F110":"9"},
{"678F121":"9"},
{"678F122":"9"},
{"678F123":"4"},
{"678F124":"6"},
{"678F125":"9"},
{"678F126":"2"},
{"678F127":"4"},
{"678F128":"6"},
{"678F129":"9"},
{"678F12A":"2"},
{"678F12B":"9"}
