{
"640":"CAS/FEM/BDC_BODY车身模块",
"63F":"ASD动态音效",
"660":"KOMBI车内仪表",
"663":"HU_NBT屏幕主机",
"672":"REM后排接线盒",
"678":"IHKA车内空调",
"656":"FZD天窗模块",
"60D":"HKFM电动后备箱",
"66B":"HKFM_LS电动后备箱",
"61C":"ICM底盘电脑模块",
"601":"ACSM安全气囊电脑",
"606":"TRSVC/ICAM倒车影像系统",
"664":"PDC车身雷达",
"62C":"PMA泊车辅助",
"600":"JBBF接线盒电脑模块",
"66D":"SM_L主驾驶座椅模块",
"66E":"SM_R副驾驶座椅模块",
"641":"TMS_L动态照明",
"642":"TMS_R动态照明",
"65D":"KAFAS驾驶辅助系统",
"629":"DSC车身稳定系统",
"612":"DME发动机电脑",
"618":"EGS变速箱电脑",
"630":"EPS转向电脑",
"626":"RSE_NBT后排娱乐系统",
"676":"VDP悬挂系统",
"667":"ZBE旋钮",
"621":"FRR自适应巡航",
"63D":"HUD抬头显示器",
"637":"AMP_TOPHB顶级高保真",
"661":"TCB/ATM驾驶互联",
"64F":"LEM光线管理模块",
"608":"RS",
"622":"SAS2驾驶辅助系统",
"617":"EKPM油泵",
"679":"FKA后排空调"
}