{"63FF110":"9"},
{"63FF121":"9"},
{"63FF122":"9"},
{"63FF123":"4"},
{"63FF124":"6"},
{"63FF125":"9"},
{"63FF126":"2"},
{"63FF127":"4"},
{"63FF128":"6"},
{"63FF129":"9"},
{"63FF12A":"9"},
{"640F110":"9"},
{"640F122":"9"},
{"640F123":"4"},
{"640F124":"6"},
{"640F125":"9"},
{"640F126":"2"},
{"640F127":"4"},
{"640F128":"6"},
{"640F129":"9"},
{"640F12A":"2"},
{"640F12B":"4"},
{"640F12C":"6"},
{"640F12D":"9"},
{"640F12E":"2"},
{"640F12F":"4"},
{"640F120":"6"},
{"640F121":"9"},
{"640F122":"2"},
{"640F123":"4"},
{"640F124":"6"},
{"640F125":"9"},
{"640F126":"9"},
{"660F110":"9"},
{"660F121":"9"},
{"660F122":"9"},
{"660F123":"4"},
{"660F124":"6"},
{"660F125":"9"},
{"660F126":"2"},
{"660F127":"4"},
{"660F128":"6"},
{"660F129":"9"},
{"660F12A":"2"},
{"660F12B":"4"},
{"660F12C":"6"},
{"660F12D":"9"},
{"660F12E":"9"},
{"663F110":"9"},
{"663F121":"9"},
{"663F122":"9"},
{"663F123":"4"},
{"663F124":"6"},
{"663F125":"9"},
{"663F126":"2"},
{"663F127":"4"},
{"663F128":"6"},
{"663F129":"9"},
{"663F12A":"2"},
{"663F12B":"4"},
{"663F12C":"6"},
{"663F12D":"9"},
{"663F12E":"2"},
{"663F12F":"4"},
{"663F120":"6"},
{"663F121":"9"},
{"663F122":"2"},
{"663F123":"4"},
{"663F124":"6"},
{"663F125":"9"},
{"663F126":"2"},
{"663F127":"4"},
{"663F128":"6"},
{"663F129":"9"},
{"663F12A":"2"},
{"663F12B":"4"},
{"663F12C":"6"},
{"663F12D":"9"},
{"663F12E":"2"},
{"663F12F":"4"},
{"663F120":"6"},
{"663F121":"9"},
{"663F122":"9"},
{"678F110":"9"},
{"678F121":"9"},
{"678F122":"9"},
{"678F123":"4"},
{"678F124":"6"},
{"678F125":"9"},
{"678F126":"2"},
{"678F127":"4"},
{"678F128":"6"},
{"678F129":"9"},
{"678F12A":"2"},
{"678F12B":"9"},
{"601F110":"9"},
{"601F121":"9"},
{"601F122":"9"},
{"601F123":"4"},
{"601F124":"6"},
{"601F125":"9"},
{"601F126":"2"},
{"601F127":"4"},
{"601F128":"6"},
{"601F129":"9"},
{"601F12A":"2"},
{"601F12B":"9"},
{"656F110":"9"},
{"656F121":"9"},
{"656F122":"9"},
{"656F123":"4"},
{"656F124":"6"},
{"656F125":"9"},
{"656F126":"2"},
{"656F127":"4"},
{"656F128":"6"},
{"656F129":"9"},
{"656F12A":"2"},
{"656F12B":"4"},
{"656F12C":"6"},
{"656F12D":"9"},
{"656F12E":"9"},
{"606F110":"9"},
{"606F121":"9"},
{"606F122":"9"},
{"606F123":"4"},
{"606F124":"6"},
{"606F125":"9"},
{"606F126":"2"},
{"606F127":"4"},
{"606F128":"9"},
{"62CF110":"9"},
{"62CF121":"9"},
{"62CF122":"9"},
{"62CF123":"4"},
{"62CF124":"6"},
{"62CF125":"9"},
{"62CF126":"2"},
{"62CF127":"4"},
{"62CF128":"9"},

