AT ST ff,
	021001,
	021003,
	021041,
	062701FFFFFFFF,
10862702000000 1,
21209A3D634EF4 0,
228E24AB7E26D1 0,
23FAB7524AA5A3 0,
243629D8B3DA62 0,
25B9CE0A62E720 0,
269CA8DC571EA8 0,
27F9E8F73D4DC6 0,
28C46B310BE5F4 0,
29C54E56B043EA 0,
2A77BB677C0F31 0,
2BAB502BEAF9E7 0,
2CEECE583942F4 0,
2DC87D0399B4B9 0,
2E441AAAE27D06 0,
2F823EAEB6F7DB 0,
201471B83F16CA 0,
21B7D40F00C304 0,
22703590CD5161 0,
231226351CCF93 0,
24F21781544BD1 0,
2565C3C1A1D496 0,
264E5C94FFFFFF,
023E80 0,
	10996230006C00 1,
	21F0000003E506 0,
	2200746200E203 0,
	23028D2A140180 0,
	2469019C010082 0,
	250400000C9018 0,
	260C2010500800 0,
	27020000000000 0,
	28000000000000 0,
	29000000000000 0,
	2A00C02F000000 0,
	2B000000000000 0,
	2C000000000000 0,
	2D000000000000 0,
	2E000000000000 0,
	2F000000000000 0,
	203476006BC070 0,
	21408090150000 0,
	2200007090C11D 0,
	23C900001D0000 0,
	24000000000000 0,
	250000000000C0 0,
	26014080000000 0,
	27100701FC0700 0,
	28000007FF07FF 0,
	291F3F0000FFFF,
	023E80 0,
	1099623001FFC3 1,
	21885C01FFFFFF 0,
	22FF15FFFFFF91 0,
	23003C0E013A00 0,
	240C103B076E03 0,
	25AF0BBF150000 0,
	26000000000000 0,
	27000000000000 0,
	28000000000000 0,
	29000006060100 0,
	2A900200000001 0,
	2B0CFF00084100 0,
	2C000000000000 0,
	2D000000000000 0,
	2E000000000000 0,
	2F000000000000 0,
	20000000000000 0,
	21000000000000 0,
	22000000000000 0,
	23000000000000 0,
	24000000000000 0,
	25000000000000 0,
	26000000000000 0,
	27000000000000 0,
	28000000000000 0,
	2900000000FFFF,
	023E80 0,
	10996230020305 1,
	21FA1932364F2B 0,
	22000000000000 0,
	23000000000000 0,
	24020202000000 0,
	258028B8901200 0,
	26000000000000 0,
	27000000000000 0,
	28000000000000 0,
	290000E40183A6 0,
	2A00F500F50000 0,
	2B00F500F500F5 0,
	2C00F500F50000 0,
	2D0000000000F5 0,
	2E000200000000 0,
	2F000000000000 0,
	20000000000000 0,
	21000000000000 0,
	22000000000000 0,
	23000000000000 0,
	24000000000000 0,
	25000000000000 0,
	26000000000000 0,
	27000000000000 0,
	28000000000000 0,
	2900000000FFFF,
	023E80 0,
	10986230030FA1 1,
	217719068A7400 0,
	223802C9F10700 0,
	23FF3E4806A1F7 0,
	247FB360650006 0,
	25000001D0050D 0,
	2607EC21450080 0,
	27000000000000 0,
	28000000000000 0,
	29000000000000 0,
	2A000000000000 0,
	2B000000000000 0,
	2C000000000000 0,
	2D000000000000 0,
	2E000000000000 0,
	2F000000000000 0,
	20000000000000 0,
	21000000000000 0,
	22000000000000 0,
	23000000000000 0,
	24000000000000 0,
	25000000000000 0,
	26000000000000 0,
	27000000000000 0,
	28000000000000 0,
	29000000FFFFFF,
	023E80 0,
	10356230040CE7 1,
	2169044500007D 0,
	222506C4002A1E 0,
	23000002000002 0,
	24000000000000 0,
	25000000000000 0,
	26000000000000 0,
	27000000000000 0,
	28000000000000,
	023E80 0,
	10996230050000 1,
	211FC07F000145 0,
	221FC07F000000 0,
	230F0A010A0480 0,
	240701017F000F 0,
	250501010000FF 0,
	26067206D6073A 0,
	27079E00001FC0 0,
	287F0003E81FC0 0,
	297F007F007801 0,
	2A03060C0C2532 0,
	2B0000007F007A 0,
	2C525A64010008 0,
	2D0014003F0000 0,
	2E000000000000 0,
	2F000000000000 0,
	20000000000000 0,
	21000000000000 0,
	22000000000000 0,
	23000000000000 0,
	24000000000000 0,
	25000000000000 0,
	26000000000000 0,
	27000000000000 0,
	28000000000000 0,
	2900000000FFFF,
	023E80 0,
	10676230060B68 1,
	21B80FA4098C01 0,
	22FFC407000000 0,
	23000000100700 0,
	2400000300FF08 0,
	250A0030871D1F 0,
	260000F707C013 0,
	270C0000000000 0,
	28000000000000 0,
	29000000000000 0,
	2A000000000000 0,
	2B000000000000 0,
	2C000000000000 0,
	2D000000000000 0,
	2E000000000000 0,
	2F000000000000 0,
	20000000000000 0,
	210000FFFFFFFF,
	023E80 0,
	10356230070800 1,
	21004002000C00 0,
	22000000000000 0,
	23000000000000 0,
	24000000000000 0,
	25000000000000 0,
	26000000000000 0,
	27000000000000 0,
	28000000000000,
	023E80 0,
	10536230080000 1,
	21000000000000 0,
	22000000000000 0,
	23000000000000 0,
	24000000000000 0,
	25000000000000 0,
	26000000000000 0,
	27000000000000 0,
	28000000000000 0,
	29000000000000 0,
	2A000000000000 0,
	2B000000000000 0,
	2C000000000000 0,
	2D00000000E0AE,
	023E80 0,
	104F62300900DC 1,
	2133811814503C 0,
	2228303014141E 0,
	230832050A1414 0,
	241E1B1B704201 0,
	25000000000000 0,
	26000000000000 0,
	27000000000000 0,
	28000000000000 0,
	29000000000000 0,
	2A000000000000 0,
	2B000000000000 0,
	2C000000000000 0,
	2D0000FFFFFFFF,
	023E80 0,
	103562300A0200 1,
	21AC0078000555 0,
	22553008000000 0,
	23000000000000 0,
	24000000000000 0,
	25000000000000 0,
	26000000000000 0,
	27000000000000 0,
	28000000004000,
	023E80 0,
	102162300B0000 1,
	21000020000000 0,
	22000000000000 0,
	23000000000000 0,
	24000000000000 0,
	2500000000FFFF,
	023E80 0,
	105362300C80A9 1,
	212021BD000000 0,
	22008003000000 0,
	23000000000000 0,
	24000000000000 0,
	25000000000000 0,
	26000000000000 0,
	27000000000000 0,
	28000000000000 0,
	29000000000000 0,
	2A000000000000 0,
	2B000000000000 0,
	2C000000000000 0,
	2D000000000000,
	023E80 0,
	105262300DA40D 1,
	21201E00000000 0,
	22000000000000 0,
	23000000000000 0,
	24000000000000 0,
	25000000000000 0,
	26000000000000 0,
	27000000000000 0,
	28000000000000 0,
	29000000000000 0,
	2A000000000000 0,
	2B000000000000 0,
	2C000000000000 0,
	2D0000000000FF,
	023E80 0,
	100862300E0000 1,
	21004E87FFFFFF,
	023E80 0,
	100B62300F0500 1,
	21001EF6061407,
	023E80 0,
	10876230100000 1,
	210020C7F967D8 0,
	22574377564E3E 0,
	238EE79306AF06 0,
	24FEBD02FF8964 0,
	25CEE6A29C6CE4 0,
	26F08EA055CC0D 0,
	27DFDAC9BA767A 0,
	280B3138BBFA6E 0,
	2920F036EF2B1E 0,
	2ABB32BCEEF000 0,
	2B77B01085B59E 0,
	2C532ABC0108A1 0,
	2D65B117157DAE 0,
	2E717126E74C5C 0,
	2F073C1A417DDA 0,
	2053D0D08508D7 0,
	21DAA776E4DE4B 0,
	229CA57A415983 0,
	23ED809D41C03F 0,
	246E7D08E9357A 0,
	25246EF1FA1F74 0,
	266045F10BFFFF,
	023E80 0,
	0431010F01,
	023E80 0,
	100A6237FE3030 1,
	213030303030FF,
	021101
